Using tidycensus
…
"acs5"

"acs5/subject"

"acs5/profile"

vars_detailed <- load_variables(year = 2020, dataset = "acs5")
vars_subject <- load_variables(year = 2020, dataset = "acs5/subject")

You can search these objects using View(vars_detailed) in RStudio and then using the filter functionality. Alternatively, you can use stringr’s str_detect() function:

vars_subject %>%
  filter(str_detect(concept, pattern = "AGE"))

# A tibble: 1,619 × 3
   name          label                                                  concept 
   <chr>         <chr>                                                  <chr>   
 1 S0101_C01_001 Estimate!!Total!!Total population                      AGE AND…
 2 S0101_C01_002 Estimate!!Total!!Total population!!AGE!!Under 5 years  AGE AND…
 3 S0101_C01_003 Estimate!!Total!!Total population!!AGE!!5 to 9 years   AGE AND…
 4 S0101_C01_004 Estimate!!Total!!Total population!!AGE!!10 to 14 years AGE AND…
 5 S0101_C01_005 Estimate!!Total!!Total population!!AGE!!15 to 19 years AGE AND…
 6 S0101_C01_006 Estimate!!Total!!Total population!!AGE!!20 to 24 years AGE AND…
 7 S0101_C01_007 Estimate!!Total!!Total population!!AGE!!25 to 29 years AGE AND…
 8 S0101_C01_008 Estimate!!Total!!Total population!!AGE!!30 to 34 years AGE AND…
 9 S0101_C01_009 Estimate!!Total!!Total population!!AGE!!35 to 39 years AGE AND…
10 S0101_C01_010 Estimate!!Total!!Total population!!AGE!!40 to 44 years AGE AND…
# … with 1,609 more rows
…
